{
  "$schema": "https://opendataschema.frama.io/catalog/schema-catalog.json",
  "version": 1,
  "schemas": [
    {
      "name": "adresses",
      "repo_url": "https://git.opendatafrance.net/scdl/adresses/",
      "doc_url": "https://scdl.opendatafrance.net/docs/schemas/adresses.html"
    },
    {
      "schema_type": "tableschema",
      "name": "catalogue",
      "repo_url": "https://git.opendatafrance.net/scdl/catalogue/",
      "extra_property": {}
    },
    {
      "schema_type": "jsonschema",
      "name": "subventions",
      "schema_url": "https://git.opendatafrance.net/scdl/subventions/raw/master/schema.json",
      "extra_property": null
    }
  ]
}